# Name,age,phone,cars
Steve,23,555-2222,Kawasaki
Emre,24,555-111,VW
Camillo,23,555-123,Tesla
Katie Mc,22,124-458,Polo
Katie Mo,25,555-7777,Citroen
Chloe,24,5555-8788,Fiat
Eimear,23,555-1225,Clio
Rachel,25,555-4789,DeLorean
Megan,22,123-4564,Fiat 500
